^C:\USERS\DYN\DESKTOP\REFERRAL_SYSTEM\GENERATEDFILES\DEBUG\MOC_FACILITYDIALOG.CPP|C:\USERS\DYN\DESKTOP\REFERRAL_SYSTEM\GENERATEDFILES\DEBUG\MOC_HEALTHDATADIALOG.CPP|C:\USERS\DYN\DESKTOP\REFERRAL_SYSTEM\GENERATEDFILES\DEBUG\MOC_LIFESTYLEDIALOG.CPP|C:\USERS\DYN\DESKTOP\REFERRAL_SYSTEM\GENERATEDFILES\DEBUG\MOC_LOGINSTATE.CPP|C:\USERS\DYN\DESKTOP\REFERRAL_SYSTEM\GENERATEDFILES\DEBUG\MOC_MAINSCREENSTATE.CPP|C:\USERS\DYN\DESKTOP\REFERRAL_SYSTEM\GENERATEDFILES\DEBUG\MOC_REFERRALSTATE.CPP|C:\USERS\DYN\DESKTOP\REFERRAL_SYSTEM\GENERATEDFILES\DEBUG\MOC_SYMPTOMDIALOG.CPP|C:\USERS\DYN\DESKTOP\REFERRAL_SYSTEM\GENERATEDFILES\DEBUG\MOC_VIEWREFERRALSSTATE.CPP|C:\USERS\DYN\DESKTOP\REFERRAL_SYSTEM\SRC\ADDRESS.CPP|C:\USERS\DYN\DESKTOP\REFERRAL_SYSTEM\SRC\AGEASSESSOR.CPP|C:\USERS\DYN\DESKTOP\REFERRAL_SYSTEM\SRC\CONDITION.CPP|C:\USERS\DYN\DESKTOP\REFERRAL_SYSTEM\SRC\CONDITIONDIALOG.CPP|C:\USERS\DYN\DESKTOP\REFERRAL_SYSTEM\SRC\CONNECTION.CPP|C:\USERS\DYN\DESKTOP\REFERRAL_SYSTEM\SRC\EMERGENCYASSESSOR.CPP|C:\USERS\DYN\DESKTOP\REFERRAL_SYSTEM\SRC\FACILITY.CPP|C:\USERS\DYN\DESKTOP\REFERRAL_SYSTEM\SRC\FACILITYDIALOG.CPP|C:\USERS\DYN\DESKTOP\REFERRAL_SYSTEM\SRC\FUZZYMANAGER.CPP|C:\USERS\DYN\DESKTOP\REFERRAL_SYSTEM\SRC\FUZZYSYSTEM.CPP|C:\USERS\DYN\DESKTOP\REFERRAL_SYSTEM\SRC\GP.CPP|C:\USERS\DYN\DESKTOP\REFERRAL_SYSTEM\SRC\HEALTHDATADIALOG.CPP|C:\USERS\DYN\DESKTOP\REFERRAL_SYSTEM\SRC\HEATHASSESSOR.CPP|C:\USERS\DYN\DESKTOP\REFERRAL_SYSTEM\SRC\LIFESTYLE.CPP|C:\USERS\DYN\DESKTOP\REFERRAL_SYSTEM\SRC\LIFESTYLEASSESSOR.CPP|C:\USERS\DYN\DESKTOP\REFERRAL_SYSTEM\SRC\LIFESTYLEDIALOG.CPP|C:\USERS\DYN\DESKTOP\REFERRAL_SYSTEM\SRC\LOGINSTATE.CPP|C:\USERS\DYN\DESKTOP\REFERRAL_SYSTEM\SRC\MAIN.CPP|C:\USERS\DYN\DESKTOP\REFERRAL_SYSTEM\SRC\MAINSCREENSTATE.CPP|C:\USERS\DYN\DESKTOP\REFERRAL_SYSTEM\SRC\MEDICALDATA.CPP|C:\USERS\DYN\DESKTOP\REFERRAL_SYSTEM\SRC\PATIENT.CPP|C:\USERS\DYN\DESKTOP\REFERRAL_SYSTEM\SRC\PATIENTMANAGER.CPP|C:\USERS\DYN\DESKTOP\REFERRAL_SYSTEM\SRC\REFERRAL.CPP|C:\USERS\DYN\DESKTOP\REFERRAL_SYSTEM\SRC\REFERRALMANAGER.CPP|C:\USERS\DYN\DESKTOP\REFERRAL_SYSTEM\SRC\REFERRALSTATE.CPP|C:\USERS\DYN\DESKTOP\REFERRAL_SYSTEM\SRC\SPECIALIST.CPP|C:\USERS\DYN\DESKTOP\REFERRAL_SYSTEM\SRC\STATE.CPP|C:\USERS\DYN\DESKTOP\REFERRAL_SYSTEM\SRC\STATEMANAGER.CPP|C:\USERS\DYN\DESKTOP\REFERRAL_SYSTEM\SRC\SYMPTOM.CPP|C:\USERS\DYN\DESKTOP\REFERRAL_SYSTEM\SRC\SYMPTOMASSESSOR.CPP|C:\USERS\DYN\DESKTOP\REFERRAL_SYSTEM\SRC\SYMPTOMDIALOG.CPP|C:\USERS\DYN\DESKTOP\REFERRAL_SYSTEM\SRC\TREATMENT.CPP|C:\USERS\DYN\DESKTOP\REFERRAL_SYSTEM\SRC\TREATMENTASSESSOR.CPP|C:\USERS\DYN\DESKTOP\REFERRAL_SYSTEM\SRC\TREATMENTDIALOG.CPP|C:\USERS\DYN\DESKTOP\REFERRAL_SYSTEM\SRC\USERMANAGER.CPP|C:\USERS\DYN\DESKTOP\REFERRAL_SYSTEM\SRC\VIEWREFERRALSSTATE.CPP
C:\USERS\DYN\DESKTOP\REFERRAL_SYSTEM\TEMP\DEBUG\VC120.PDB
C:\USERS\DYN\DESKTOP\REFERRAL_SYSTEM\TEMP\DEBUG\HEALTHDATADIALOG.OBJ
C:\USERS\DYN\DESKTOP\REFERRAL_SYSTEM\TEMP\DEBUG\GP.OBJ
C:\USERS\DYN\DESKTOP\REFERRAL_SYSTEM\TEMP\DEBUG\FUZZYSYSTEM.OBJ
C:\USERS\DYN\DESKTOP\REFERRAL_SYSTEM\TEMP\DEBUG\FUZZYMANAGER.OBJ
C:\USERS\DYN\DESKTOP\REFERRAL_SYSTEM\TEMP\DEBUG\FACILITYDIALOG.OBJ
C:\USERS\DYN\DESKTOP\REFERRAL_SYSTEM\TEMP\DEBUG\FACILITY.OBJ
C:\USERS\DYN\DESKTOP\REFERRAL_SYSTEM\TEMP\DEBUG\EMERGENCYASSESSOR.OBJ
C:\USERS\DYN\DESKTOP\REFERRAL_SYSTEM\TEMP\DEBUG\CONNECTION.OBJ
C:\USERS\DYN\DESKTOP\REFERRAL_SYSTEM\TEMP\DEBUG\CONDITIONDIALOG.OBJ
C:\USERS\DYN\DESKTOP\REFERRAL_SYSTEM\TEMP\DEBUG\CONDITION.OBJ
C:\USERS\DYN\DESKTOP\REFERRAL_SYSTEM\TEMP\DEBUG\AGEASSESSOR.OBJ
C:\USERS\DYN\DESKTOP\REFERRAL_SYSTEM\TEMP\DEBUG\ADDRESS.OBJ
C:\USERS\DYN\DESKTOP\REFERRAL_SYSTEM\TEMP\DEBUG\MOC_SYMPTOMDIALOG.OBJ
C:\USERS\DYN\DESKTOP\REFERRAL_SYSTEM\TEMP\DEBUG\MOC_HEALTHDATADIALOG.OBJ
C:\USERS\DYN\DESKTOP\REFERRAL_SYSTEM\TEMP\DEBUG\MOC_FACILITYDIALOG.OBJ
C:\USERS\DYN\DESKTOP\REFERRAL_SYSTEM\TEMP\DEBUG\TREATMENT.OBJ
C:\USERS\DYN\DESKTOP\REFERRAL_SYSTEM\TEMP\DEBUG\SYMPTOMDIALOG.OBJ
C:\USERS\DYN\DESKTOP\REFERRAL_SYSTEM\TEMP\DEBUG\SYMPTOMASSESSOR.OBJ
C:\USERS\DYN\DESKTOP\REFERRAL_SYSTEM\TEMP\DEBUG\SYMPTOM.OBJ
C:\USERS\DYN\DESKTOP\REFERRAL_SYSTEM\TEMP\DEBUG\STATEMANAGER.OBJ
C:\USERS\DYN\DESKTOP\REFERRAL_SYSTEM\TEMP\DEBUG\STATE.OBJ
C:\USERS\DYN\DESKTOP\REFERRAL_SYSTEM\TEMP\DEBUG\SPECIALIST.OBJ
C:\USERS\DYN\DESKTOP\REFERRAL_SYSTEM\TEMP\DEBUG\REFERRALMANAGER.OBJ
C:\USERS\DYN\DESKTOP\REFERRAL_SYSTEM\TEMP\DEBUG\REFERRAL.OBJ
C:\USERS\DYN\DESKTOP\REFERRAL_SYSTEM\TEMP\DEBUG\PATIENTMANAGER.OBJ
C:\USERS\DYN\DESKTOP\REFERRAL_SYSTEM\TEMP\DEBUG\PATIENT.OBJ
C:\USERS\DYN\DESKTOP\REFERRAL_SYSTEM\TEMP\DEBUG\MEDICALDATA.OBJ
C:\USERS\DYN\DESKTOP\REFERRAL_SYSTEM\TEMP\DEBUG\LIFESTYLEASSESSOR.OBJ
C:\USERS\DYN\DESKTOP\REFERRAL_SYSTEM\TEMP\DEBUG\LIFESTYLE.OBJ
C:\USERS\DYN\DESKTOP\REFERRAL_SYSTEM\TEMP\DEBUG\HEATHASSESSOR.OBJ
C:\USERS\DYN\DESKTOP\REFERRAL_SYSTEM\TEMP\DEBUG\USERMANAGER.OBJ
C:\USERS\DYN\DESKTOP\REFERRAL_SYSTEM\TEMP\DEBUG\TREATMENTDIALOG.OBJ
C:\USERS\DYN\DESKTOP\REFERRAL_SYSTEM\TEMP\DEBUG\TREATMENTASSESSOR.OBJ
^C:\USERS\DYN\DESKTOP\REFERRAL_SYSTEM\GENERATEDFILES\DEBUG\MOC_FACILITYDIALOG.CPP|C:\USERS\DYN\DESKTOP\REFERRAL_SYSTEM\GENERATEDFILES\DEBUG\MOC_LIFESTYLEDIALOG.CPP|C:\USERS\DYN\DESKTOP\REFERRAL_SYSTEM\GENERATEDFILES\DEBUG\MOC_LOGINSTATE.CPP|C:\USERS\DYN\DESKTOP\REFERRAL_SYSTEM\GENERATEDFILES\DEBUG\MOC_MAINSCREENSTATE.CPP|C:\USERS\DYN\DESKTOP\REFERRAL_SYSTEM\GENERATEDFILES\DEBUG\MOC_REFERRALSTATE.CPP|C:\USERS\DYN\DESKTOP\REFERRAL_SYSTEM\GENERATEDFILES\DEBUG\MOC_SYMPTOMDIALOG.CPP|C:\USERS\DYN\DESKTOP\REFERRAL_SYSTEM\GENERATEDFILES\DEBUG\MOC_VIEWREFERRALSSTATE.CPP|C:\USERS\DYN\DESKTOP\REFERRAL_SYSTEM\SRC\ADDRESS.CPP|C:\USERS\DYN\DESKTOP\REFERRAL_SYSTEM\SRC\HEATHASSESSOR.CPP|C:\USERS\DYN\DESKTOP\REFERRAL_SYSTEM\SRC\LIFESTYLEDIALOG.CPP|C:\USERS\DYN\DESKTOP\REFERRAL_SYSTEM\SRC\LOGINSTATE.CPP|C:\USERS\DYN\DESKTOP\REFERRAL_SYSTEM\SRC\MAIN.CPP|C:\USERS\DYN\DESKTOP\REFERRAL_SYSTEM\SRC\MAINSCREENSTATE.CPP|C:\USERS\DYN\DESKTOP\REFERRAL_SYSTEM\SRC\MEDICALDATA.CPP|C:\USERS\DYN\DESKTOP\REFERRAL_SYSTEM\SRC\REFERRALSTATE.CPP|C:\USERS\DYN\DESKTOP\REFERRAL_SYSTEM\SRC\SPECIALIST.CPP|C:\USERS\DYN\DESKTOP\REFERRAL_SYSTEM\SRC\VIEWREFERRALSSTATE.CPP
C:\USERS\DYN\DESKTOP\REFERRAL_SYSTEM\TEMP\DEBUG\VC120.PDB
C:\USERS\DYN\DESKTOP\REFERRAL_SYSTEM\TEMP\DEBUG\SPECIALIST.OBJ
C:\USERS\DYN\DESKTOP\REFERRAL_SYSTEM\TEMP\DEBUG\MEDICALDATA.OBJ
C:\USERS\DYN\DESKTOP\REFERRAL_SYSTEM\TEMP\DEBUG\HEATHASSESSOR.OBJ
C:\USERS\DYN\DESKTOP\REFERRAL_SYSTEM\TEMP\DEBUG\ADDRESS.OBJ
C:\USERS\DYN\DESKTOP\REFERRAL_SYSTEM\TEMP\DEBUG\MOC_SYMPTOMDIALOG.OBJ
C:\USERS\DYN\DESKTOP\REFERRAL_SYSTEM\TEMP\DEBUG\MOC_FACILITYDIALOG.OBJ
^C:\USERS\DYN\DESKTOP\REFERRAL_SYSTEM\GENERATEDFILES\DEBUG\MOC_LIFESTYLEDIALOG.CPP|C:\USERS\DYN\DESKTOP\REFERRAL_SYSTEM\GENERATEDFILES\DEBUG\MOC_LOGINSTATE.CPP|C:\USERS\DYN\DESKTOP\REFERRAL_SYSTEM\GENERATEDFILES\DEBUG\MOC_MAINSCREENSTATE.CPP|C:\USERS\DYN\DESKTOP\REFERRAL_SYSTEM\GENERATEDFILES\DEBUG\MOC_REFERRALSTATE.CPP|C:\USERS\DYN\DESKTOP\REFERRAL_SYSTEM\GENERATEDFILES\DEBUG\MOC_VIEWREFERRALSSTATE.CPP|C:\USERS\DYN\DESKTOP\REFERRAL_SYSTEM\SRC\LIFESTYLEDIALOG.CPP|C:\USERS\DYN\DESKTOP\REFERRAL_SYSTEM\SRC\LOGINSTATE.CPP|C:\USERS\DYN\DESKTOP\REFERRAL_SYSTEM\SRC\MAIN.CPP|C:\USERS\DYN\DESKTOP\REFERRAL_SYSTEM\SRC\MAINSCREENSTATE.CPP|C:\USERS\DYN\DESKTOP\REFERRAL_SYSTEM\SRC\REFERRALSTATE.CPP|C:\USERS\DYN\DESKTOP\REFERRAL_SYSTEM\SRC\VIEWREFERRALSSTATE.CPP
C:\USERS\DYN\DESKTOP\REFERRAL_SYSTEM\TEMP\DEBUG\VC120.PDB
C:\USERS\DYN\DESKTOP\REFERRAL_SYSTEM\TEMP\DEBUG\VIEWREFERRALSSTATE.OBJ
C:\USERS\DYN\DESKTOP\REFERRAL_SYSTEM\TEMP\DEBUG\REFERRALSTATE.OBJ
C:\USERS\DYN\DESKTOP\REFERRAL_SYSTEM\TEMP\DEBUG\MAINSCREENSTATE.OBJ
C:\USERS\DYN\DESKTOP\REFERRAL_SYSTEM\TEMP\DEBUG\MAIN.OBJ
C:\USERS\DYN\DESKTOP\REFERRAL_SYSTEM\TEMP\DEBUG\LOGINSTATE.OBJ
C:\USERS\DYN\DESKTOP\REFERRAL_SYSTEM\TEMP\DEBUG\LIFESTYLEDIALOG.OBJ
C:\USERS\DYN\DESKTOP\REFERRAL_SYSTEM\TEMP\DEBUG\MOC_VIEWREFERRALSSTATE.OBJ
C:\USERS\DYN\DESKTOP\REFERRAL_SYSTEM\TEMP\DEBUG\MOC_REFERRALSTATE.OBJ
C:\USERS\DYN\DESKTOP\REFERRAL_SYSTEM\TEMP\DEBUG\MOC_MAINSCREENSTATE.OBJ
C:\USERS\DYN\DESKTOP\REFERRAL_SYSTEM\TEMP\DEBUG\MOC_LOGINSTATE.OBJ
C:\USERS\DYN\DESKTOP\REFERRAL_SYSTEM\TEMP\DEBUG\MOC_LIFESTYLEDIALOG.OBJ
^C:\USERS\DYN\DESKTOP\REFERRAL_SYSTEM\GENERATEDFILES\DEBUG\MOC_HEALTHDATADIALOG.CPP|C:\USERS\DYN\DESKTOP\REFERRAL_SYSTEM\GENERATEDFILES\DEBUG\MOC_LIFESTYLEDIALOG.CPP|C:\USERS\DYN\DESKTOP\REFERRAL_SYSTEM\GENERATEDFILES\DEBUG\MOC_LOGINSTATE.CPP|C:\USERS\DYN\DESKTOP\REFERRAL_SYSTEM\GENERATEDFILES\DEBUG\MOC_MAINSCREENSTATE.CPP|C:\USERS\DYN\DESKTOP\REFERRAL_SYSTEM\GENERATEDFILES\DEBUG\MOC_REFERRALSTATE.CPP|C:\USERS\DYN\DESKTOP\REFERRAL_SYSTEM\GENERATEDFILES\DEBUG\MOC_SYMPTOMDIALOG.CPP|C:\USERS\DYN\DESKTOP\REFERRAL_SYSTEM\GENERATEDFILES\DEBUG\MOC_VIEWREFERRALSSTATE.CPP|C:\USERS\DYN\DESKTOP\REFERRAL_SYSTEM\SRC\HEALTHDATADIALOG.CPP|C:\USERS\DYN\DESKTOP\REFERRAL_SYSTEM\SRC\LIFESTYLEDIALOG.CPP|C:\USERS\DYN\DESKTOP\REFERRAL_SYSTEM\SRC\LOGINSTATE.CPP|C:\USERS\DYN\DESKTOP\REFERRAL_SYSTEM\SRC\MAIN.CPP|C:\USERS\DYN\DESKTOP\REFERRAL_SYSTEM\SRC\MAINSCREENSTATE.CPP|C:\USERS\DYN\DESKTOP\REFERRAL_SYSTEM\SRC\REFERRALSTATE.CPP|C:\USERS\DYN\DESKTOP\REFERRAL_SYSTEM\SRC\STATEMANAGER.CPP|C:\USERS\DYN\DESKTOP\REFERRAL_SYSTEM\SRC\SYMPTOMDIALOG.CPP|C:\USERS\DYN\DESKTOP\REFERRAL_SYSTEM\SRC\VIEWREFERRALSSTATE.CPP
C:\USERS\DYN\DESKTOP\REFERRAL_SYSTEM\TEMP\DEBUG\VC120.PDB
C:\USERS\DYN\DESKTOP\REFERRAL_SYSTEM\TEMP\DEBUG\MAIN.OBJ
C:\USERS\DYN\DESKTOP\REFERRAL_SYSTEM\TEMP\DEBUG\VIEWREFERRALSSTATE.OBJ
C:\USERS\DYN\DESKTOP\REFERRAL_SYSTEM\TEMP\DEBUG\SYMPTOMDIALOG.OBJ
C:\USERS\DYN\DESKTOP\REFERRAL_SYSTEM\TEMP\DEBUG\STATEMANAGER.OBJ
C:\USERS\DYN\DESKTOP\REFERRAL_SYSTEM\TEMP\DEBUG\MAINSCREENSTATE.OBJ
C:\USERS\DYN\DESKTOP\REFERRAL_SYSTEM\TEMP\DEBUG\LOGINSTATE.OBJ
C:\USERS\DYN\DESKTOP\REFERRAL_SYSTEM\TEMP\DEBUG\LIFESTYLEDIALOG.OBJ
C:\USERS\DYN\DESKTOP\REFERRAL_SYSTEM\TEMP\DEBUG\HEALTHDATADIALOG.OBJ
C:\USERS\DYN\DESKTOP\REFERRAL_SYSTEM\TEMP\DEBUG\MOC_VIEWREFERRALSSTATE.OBJ
C:\USERS\DYN\DESKTOP\REFERRAL_SYSTEM\TEMP\DEBUG\MOC_SYMPTOMDIALOG.OBJ
C:\USERS\DYN\DESKTOP\REFERRAL_SYSTEM\TEMP\DEBUG\MOC_REFERRALSTATE.OBJ
C:\USERS\DYN\DESKTOP\REFERRAL_SYSTEM\TEMP\DEBUG\MOC_MAINSCREENSTATE.OBJ
C:\USERS\DYN\DESKTOP\REFERRAL_SYSTEM\TEMP\DEBUG\MOC_LOGINSTATE.OBJ
C:\USERS\DYN\DESKTOP\REFERRAL_SYSTEM\TEMP\DEBUG\MOC_LIFESTYLEDIALOG.OBJ
C:\USERS\DYN\DESKTOP\REFERRAL_SYSTEM\TEMP\DEBUG\MOC_HEALTHDATADIALOG.OBJ
^C:\USERS\DYN\DESKTOP\REFERRAL_SYSTEM\SRC\PATIENT.CPP|C:\USERS\DYN\DESKTOP\REFERRAL_SYSTEM\SRC\REFERRALSTATE.CPP
C:\USERS\DYN\DESKTOP\REFERRAL_SYSTEM\TEMP\DEBUG\VC120.PDB
C:\USERS\DYN\DESKTOP\REFERRAL_SYSTEM\TEMP\DEBUG\REFERRALSTATE.OBJ
C:\USERS\DYN\DESKTOP\REFERRAL_SYSTEM\TEMP\DEBUG\PATIENT.OBJ
^C:\USERS\DYN\DESKTOP\REFERRAL_SYSTEM\GENERATEDFILES\DEBUG\MOC_LIFESTYLEDIALOG.CPP|C:\USERS\DYN\DESKTOP\REFERRAL_SYSTEM\GENERATEDFILES\DEBUG\MOC_LOGINSTATE.CPP|C:\USERS\DYN\DESKTOP\REFERRAL_SYSTEM\GENERATEDFILES\DEBUG\MOC_MAINSCREENSTATE.CPP|C:\USERS\DYN\DESKTOP\REFERRAL_SYSTEM\GENERATEDFILES\DEBUG\MOC_REFERRALSTATE.CPP|C:\USERS\DYN\DESKTOP\REFERRAL_SYSTEM\GENERATEDFILES\DEBUG\MOC_VIEWREFERRALSSTATE.CPP|C:\USERS\DYN\DESKTOP\REFERRAL_SYSTEM\GENERATEDFILES\DEBUG\MOC_VIEWSPECIALISTSDIALOG.CPP|C:\USERS\DYN\DESKTOP\REFERRAL_SYSTEM\SRC\LIFESTYLEDIALOG.CPP|C:\USERS\DYN\DESKTOP\REFERRAL_SYSTEM\SRC\LOGINSTATE.CPP|C:\USERS\DYN\DESKTOP\REFERRAL_SYSTEM\SRC\MAIN.CPP|C:\USERS\DYN\DESKTOP\REFERRAL_SYSTEM\SRC\MAINSCREENSTATE.CPP|C:\USERS\DYN\DESKTOP\REFERRAL_SYSTEM\SRC\REFERRALSTATE.CPP|C:\USERS\DYN\DESKTOP\REFERRAL_SYSTEM\SRC\VIEWREFERRALSSTATE.CPP|C:\USERS\DYN\DESKTOP\REFERRAL_SYSTEM\SRC\VIEWSPECIALISTDIALOG.CPP
C:\USERS\DYN\DESKTOP\REFERRAL_SYSTEM\TEMP\DEBUG\VC120.PDB
C:\USERS\DYN\DESKTOP\REFERRAL_SYSTEM\TEMP\DEBUG\VIEWSPECIALISTDIALOG.OBJ
C:\USERS\DYN\DESKTOP\REFERRAL_SYSTEM\TEMP\DEBUG\VIEWREFERRALSSTATE.OBJ
C:\USERS\DYN\DESKTOP\REFERRAL_SYSTEM\TEMP\DEBUG\REFERRALSTATE.OBJ
C:\USERS\DYN\DESKTOP\REFERRAL_SYSTEM\TEMP\DEBUG\MAINSCREENSTATE.OBJ
C:\USERS\DYN\DESKTOP\REFERRAL_SYSTEM\TEMP\DEBUG\MAIN.OBJ
C:\USERS\DYN\DESKTOP\REFERRAL_SYSTEM\TEMP\DEBUG\LOGINSTATE.OBJ
C:\USERS\DYN\DESKTOP\REFERRAL_SYSTEM\TEMP\DEBUG\LIFESTYLEDIALOG.OBJ
C:\USERS\DYN\DESKTOP\REFERRAL_SYSTEM\TEMP\DEBUG\MOC_VIEWSPECIALISTSDIALOG.OBJ
C:\USERS\DYN\DESKTOP\REFERRAL_SYSTEM\TEMP\DEBUG\MOC_VIEWREFERRALSSTATE.OBJ
C:\USERS\DYN\DESKTOP\REFERRAL_SYSTEM\TEMP\DEBUG\MOC_REFERRALSTATE.OBJ
C:\USERS\DYN\DESKTOP\REFERRAL_SYSTEM\TEMP\DEBUG\MOC_MAINSCREENSTATE.OBJ
C:\USERS\DYN\DESKTOP\REFERRAL_SYSTEM\TEMP\DEBUG\MOC_LOGINSTATE.OBJ
C:\USERS\DYN\DESKTOP\REFERRAL_SYSTEM\TEMP\DEBUG\MOC_LIFESTYLEDIALOG.OBJ
^C:\USERS\DYN\DESKTOP\REFERRAL_SYSTEM\GENERATEDFILES\DEBUG\MOC_HEALTHDATADIALOG.CPP|C:\USERS\DYN\DESKTOP\REFERRAL_SYSTEM\GENERATEDFILES\DEBUG\MOC_LIFESTYLEDIALOG.CPP|C:\USERS\DYN\DESKTOP\REFERRAL_SYSTEM\GENERATEDFILES\DEBUG\MOC_LOGINSTATE.CPP|C:\USERS\DYN\DESKTOP\REFERRAL_SYSTEM\GENERATEDFILES\DEBUG\MOC_MAINSCREENSTATE.CPP|C:\USERS\DYN\DESKTOP\REFERRAL_SYSTEM\GENERATEDFILES\DEBUG\MOC_REFERRALSTATE.CPP|C:\USERS\DYN\DESKTOP\REFERRAL_SYSTEM\GENERATEDFILES\DEBUG\MOC_SYMPTOMDIALOG.CPP|C:\USERS\DYN\DESKTOP\REFERRAL_SYSTEM\GENERATEDFILES\DEBUG\MOC_VIEWREFERRALSSTATE.CPP|C:\USERS\DYN\DESKTOP\REFERRAL_SYSTEM\GENERATEDFILES\DEBUG\MOC_VIEWSPECIALISTSDIALOG.CPP|C:\USERS\DYN\DESKTOP\REFERRAL_SYSTEM\SRC\FUZZYMANAGER.CPP|C:\USERS\DYN\DESKTOP\REFERRAL_SYSTEM\SRC\HEALTHDATADIALOG.CPP|C:\USERS\DYN\DESKTOP\REFERRAL_SYSTEM\SRC\LIFESTYLEDIALOG.CPP|C:\USERS\DYN\DESKTOP\REFERRAL_SYSTEM\SRC\LOGINSTATE.CPP|C:\USERS\DYN\DESKTOP\REFERRAL_SYSTEM\SRC\MAIN.CPP|C:\USERS\DYN\DESKTOP\REFERRAL_SYSTEM\SRC\MAINSCREENSTATE.CPP|C:\USERS\DYN\DESKTOP\REFERRAL_SYSTEM\SRC\PATIENT.CPP|C:\USERS\DYN\DESKTOP\REFERRAL_SYSTEM\SRC\REFERRAL.CPP|C:\USERS\DYN\DESKTOP\REFERRAL_SYSTEM\SRC\REFERRALMANAGER.CPP|C:\USERS\DYN\DESKTOP\REFERRAL_SYSTEM\SRC\REFERRALSTATE.CPP|C:\USERS\DYN\DESKTOP\REFERRAL_SYSTEM\SRC\STATEMANAGER.CPP|C:\USERS\DYN\DESKTOP\REFERRAL_SYSTEM\SRC\SYMPTOMDIALOG.CPP|C:\USERS\DYN\DESKTOP\REFERRAL_SYSTEM\SRC\VIEWREFERRALSSTATE.CPP|C:\USERS\DYN\DESKTOP\REFERRAL_SYSTEM\SRC\VIEWSPECIALISTDIALOG.CPP
C:\USERS\DYN\DESKTOP\REFERRAL_SYSTEM\TEMP\DEBUG\VC120.PDB
C:\USERS\DYN\DESKTOP\REFERRAL_SYSTEM\TEMP\DEBUG\SYMPTOMDIALOG.OBJ
C:\USERS\DYN\DESKTOP\REFERRAL_SYSTEM\TEMP\DEBUG\STATEMANAGER.OBJ
C:\USERS\DYN\DESKTOP\REFERRAL_SYSTEM\TEMP\DEBUG\REFERRALMANAGER.OBJ
C:\USERS\DYN\DESKTOP\REFERRAL_SYSTEM\TEMP\DEBUG\REFERRAL.OBJ
C:\USERS\DYN\DESKTOP\REFERRAL_SYSTEM\TEMP\DEBUG\PATIENT.OBJ
C:\USERS\DYN\DESKTOP\REFERRAL_SYSTEM\TEMP\DEBUG\MAINSCREENSTATE.OBJ
C:\USERS\DYN\DESKTOP\REFERRAL_SYSTEM\TEMP\DEBUG\LOGINSTATE.OBJ
C:\USERS\DYN\DESKTOP\REFERRAL_SYSTEM\TEMP\DEBUG\LIFESTYLEDIALOG.OBJ
C:\USERS\DYN\DESKTOP\REFERRAL_SYSTEM\TEMP\DEBUG\HEALTHDATADIALOG.OBJ
C:\USERS\DYN\DESKTOP\REFERRAL_SYSTEM\TEMP\DEBUG\FUZZYMANAGER.OBJ
C:\USERS\DYN\DESKTOP\REFERRAL_SYSTEM\TEMP\DEBUG\MOC_VIEWSPECIALISTSDIALOG.OBJ
C:\USERS\DYN\DESKTOP\REFERRAL_SYSTEM\TEMP\DEBUG\MOC_VIEWREFERRALSSTATE.OBJ
C:\USERS\DYN\DESKTOP\REFERRAL_SYSTEM\TEMP\DEBUG\MOC_SYMPTOMDIALOG.OBJ
C:\USERS\DYN\DESKTOP\REFERRAL_SYSTEM\TEMP\DEBUG\MOC_REFERRALSTATE.OBJ
C:\USERS\DYN\DESKTOP\REFERRAL_SYSTEM\TEMP\DEBUG\MOC_MAINSCREENSTATE.OBJ
C:\USERS\DYN\DESKTOP\REFERRAL_SYSTEM\TEMP\DEBUG\MOC_LOGINSTATE.OBJ
C:\USERS\DYN\DESKTOP\REFERRAL_SYSTEM\TEMP\DEBUG\MOC_LIFESTYLEDIALOG.OBJ
C:\USERS\DYN\DESKTOP\REFERRAL_SYSTEM\TEMP\DEBUG\MOC_HEALTHDATADIALOG.OBJ
C:\USERS\DYN\DESKTOP\REFERRAL_SYSTEM\TEMP\DEBUG\MAIN.OBJ
C:\USERS\DYN\DESKTOP\REFERRAL_SYSTEM\TEMP\DEBUG\VIEWSPECIALISTDIALOG.OBJ
^C:\USERS\DYN\DESKTOP\REFERRAL_SYSTEM\SRC\REFERRALSTATE.CPP|C:\USERS\DYN\DESKTOP\REFERRAL_SYSTEM\SRC\VIEWREFERRALSSTATE.CPP
C:\USERS\DYN\DESKTOP\REFERRAL_SYSTEM\TEMP\DEBUG\VC120.PDB
C:\USERS\DYN\DESKTOP\REFERRAL_SYSTEM\TEMP\DEBUG\VIEWREFERRALSSTATE.OBJ
^C:\USERS\DYN\DESKTOP\REFERRAL_SYSTEM\GENERATEDFILES\DEBUG\MOC_LOGINSTATE.CPP|C:\USERS\DYN\DESKTOP\REFERRAL_SYSTEM\GENERATEDFILES\DEBUG\MOC_MAINSCREENSTATE.CPP|C:\USERS\DYN\DESKTOP\REFERRAL_SYSTEM\GENERATEDFILES\DEBUG\MOC_REFERRALSTATE.CPP|C:\USERS\DYN\DESKTOP\REFERRAL_SYSTEM\GENERATEDFILES\DEBUG\MOC_VIEWREFERRALSSTATE.CPP|C:\USERS\DYN\DESKTOP\REFERRAL_SYSTEM\SRC\FUZZYMANAGER.CPP|C:\USERS\DYN\DESKTOP\REFERRAL_SYSTEM\SRC\HEATHASSESSOR.CPP|C:\USERS\DYN\DESKTOP\REFERRAL_SYSTEM\SRC\LOGINSTATE.CPP|C:\USERS\DYN\DESKTOP\REFERRAL_SYSTEM\SRC\MAIN.CPP|C:\USERS\DYN\DESKTOP\REFERRAL_SYSTEM\SRC\MAINSCREENSTATE.CPP|C:\USERS\DYN\DESKTOP\REFERRAL_SYSTEM\SRC\REFERRAL.CPP|C:\USERS\DYN\DESKTOP\REFERRAL_SYSTEM\SRC\REFERRALSTATE.CPP|C:\USERS\DYN\DESKTOP\REFERRAL_SYSTEM\SRC\VIEWREFERRALSSTATE.CPP
C:\USERS\DYN\DESKTOP\REFERRAL_SYSTEM\TEMP\DEBUG\VC120.PDB
C:\USERS\DYN\DESKTOP\REFERRAL_SYSTEM\TEMP\DEBUG\MAIN.OBJ
C:\USERS\DYN\DESKTOP\REFERRAL_SYSTEM\TEMP\DEBUG\VIEWREFERRALSSTATE.OBJ
C:\USERS\DYN\DESKTOP\REFERRAL_SYSTEM\TEMP\DEBUG\REFERRALSTATE.OBJ
C:\USERS\DYN\DESKTOP\REFERRAL_SYSTEM\TEMP\DEBUG\REFERRAL.OBJ
C:\USERS\DYN\DESKTOP\REFERRAL_SYSTEM\TEMP\DEBUG\MAINSCREENSTATE.OBJ
C:\USERS\DYN\DESKTOP\REFERRAL_SYSTEM\TEMP\DEBUG\LOGINSTATE.OBJ
C:\USERS\DYN\DESKTOP\REFERRAL_SYSTEM\TEMP\DEBUG\HEATHASSESSOR.OBJ
C:\USERS\DYN\DESKTOP\REFERRAL_SYSTEM\TEMP\DEBUG\FUZZYMANAGER.OBJ
C:\USERS\DYN\DESKTOP\REFERRAL_SYSTEM\TEMP\DEBUG\MOC_VIEWREFERRALSSTATE.OBJ
C:\USERS\DYN\DESKTOP\REFERRAL_SYSTEM\TEMP\DEBUG\MOC_REFERRALSTATE.OBJ
C:\USERS\DYN\DESKTOP\REFERRAL_SYSTEM\TEMP\DEBUG\MOC_MAINSCREENSTATE.OBJ
C:\USERS\DYN\DESKTOP\REFERRAL_SYSTEM\TEMP\DEBUG\MOC_LOGINSTATE.OBJ
^C:\USERS\DYN\DESKTOP\REFERRAL_SYSTEM\SRC\HEATHASSESSOR.CPP
C:\USERS\DYN\DESKTOP\REFERRAL_SYSTEM\TEMP\DEBUG\VC120.PDB
^C:\USERS\DYN\DESKTOP\REFERRAL_SYSTEM\SRC\REFERRAL.CPP
C:\USERS\DYN\DESKTOP\REFERRAL_SYSTEM\TEMP\DEBUG\VC120.PDB
^C:\USERS\DYN\DESKTOP\REFERRAL_SYSTEM\SRC\FUZZYMANAGER.CPP
C:\USERS\DYN\DESKTOP\REFERRAL_SYSTEM\TEMP\DEBUG\VC120.PDB
C:\USERS\DYN\DESKTOP\REFERRAL_SYSTEM\TEMP\DEBUG\FUZZYMANAGER.OBJ
^C:\USERS\DYN\DESKTOP\REFERRAL_SYSTEM\GENERATEDFILES\DEBUG\MOC_HEALTHDATADIALOG.CPP|C:\USERS\DYN\DESKTOP\REFERRAL_SYSTEM\GENERATEDFILES\DEBUG\MOC_LIFESTYLEDIALOG.CPP|C:\USERS\DYN\DESKTOP\REFERRAL_SYSTEM\GENERATEDFILES\DEBUG\MOC_LOGINSTATE.CPP|C:\USERS\DYN\DESKTOP\REFERRAL_SYSTEM\GENERATEDFILES\DEBUG\MOC_MAINSCREENSTATE.CPP|C:\USERS\DYN\DESKTOP\REFERRAL_SYSTEM\GENERATEDFILES\DEBUG\MOC_REFERRALSTATE.CPP|C:\USERS\DYN\DESKTOP\REFERRAL_SYSTEM\GENERATEDFILES\DEBUG\MOC_SYMPTOMDIALOG.CPP|C:\USERS\DYN\DESKTOP\REFERRAL_SYSTEM\GENERATEDFILES\DEBUG\MOC_VIEWREFERRALSSTATE.CPP|C:\USERS\DYN\DESKTOP\REFERRAL_SYSTEM\GENERATEDFILES\DEBUG\MOC_VIEWSPECIALISTSDIALOG.CPP|C:\USERS\DYN\DESKTOP\REFERRAL_SYSTEM\SRC\HEALTHDATADIALOG.CPP|C:\USERS\DYN\DESKTOP\REFERRAL_SYSTEM\SRC\LIFESTYLEDIALOG.CPP|C:\USERS\DYN\DESKTOP\REFERRAL_SYSTEM\SRC\LOGINSTATE.CPP|C:\USERS\DYN\DESKTOP\REFERRAL_SYSTEM\SRC\MAIN.CPP|C:\USERS\DYN\DESKTOP\REFERRAL_SYSTEM\SRC\MAINSCREENSTATE.CPP|C:\USERS\DYN\DESKTOP\REFERRAL_SYSTEM\SRC\REFERRALMANAGER.CPP|C:\USERS\DYN\DESKTOP\REFERRAL_SYSTEM\SRC\REFERRALSTATE.CPP|C:\USERS\DYN\DESKTOP\REFERRAL_SYSTEM\SRC\STATEMANAGER.CPP|C:\USERS\DYN\DESKTOP\REFERRAL_SYSTEM\SRC\SYMPTOMDIALOG.CPP|C:\USERS\DYN\DESKTOP\REFERRAL_SYSTEM\SRC\VIEWREFERRALSSTATE.CPP|C:\USERS\DYN\DESKTOP\REFERRAL_SYSTEM\SRC\VIEWSPECIALISTDIALOG.CPP
C:\USERS\DYN\DESKTOP\REFERRAL_SYSTEM\TEMP\DEBUG\VC120.PDB
C:\USERS\DYN\DESKTOP\REFERRAL_SYSTEM\TEMP\DEBUG\MAIN.OBJ
C:\USERS\DYN\DESKTOP\REFERRAL_SYSTEM\TEMP\DEBUG\VIEWSPECIALISTDIALOG.OBJ
C:\USERS\DYN\DESKTOP\REFERRAL_SYSTEM\TEMP\DEBUG\VIEWREFERRALSSTATE.OBJ
C:\USERS\DYN\DESKTOP\REFERRAL_SYSTEM\TEMP\DEBUG\SYMPTOMDIALOG.OBJ
C:\USERS\DYN\DESKTOP\REFERRAL_SYSTEM\TEMP\DEBUG\STATEMANAGER.OBJ
C:\USERS\DYN\DESKTOP\REFERRAL_SYSTEM\TEMP\DEBUG\REFERRALSTATE.OBJ
C:\USERS\DYN\DESKTOP\REFERRAL_SYSTEM\TEMP\DEBUG\REFERRALMANAGER.OBJ
C:\USERS\DYN\DESKTOP\REFERRAL_SYSTEM\TEMP\DEBUG\MAINSCREENSTATE.OBJ
C:\USERS\DYN\DESKTOP\REFERRAL_SYSTEM\TEMP\DEBUG\LOGINSTATE.OBJ
C:\USERS\DYN\DESKTOP\REFERRAL_SYSTEM\TEMP\DEBUG\LIFESTYLEDIALOG.OBJ
C:\USERS\DYN\DESKTOP\REFERRAL_SYSTEM\TEMP\DEBUG\HEALTHDATADIALOG.OBJ
C:\USERS\DYN\DESKTOP\REFERRAL_SYSTEM\TEMP\DEBUG\MOC_VIEWSPECIALISTSDIALOG.OBJ
C:\USERS\DYN\DESKTOP\REFERRAL_SYSTEM\TEMP\DEBUG\MOC_VIEWREFERRALSSTATE.OBJ
C:\USERS\DYN\DESKTOP\REFERRAL_SYSTEM\TEMP\DEBUG\MOC_SYMPTOMDIALOG.OBJ
C:\USERS\DYN\DESKTOP\REFERRAL_SYSTEM\TEMP\DEBUG\MOC_REFERRALSTATE.OBJ
C:\USERS\DYN\DESKTOP\REFERRAL_SYSTEM\TEMP\DEBUG\MOC_MAINSCREENSTATE.OBJ
C:\USERS\DYN\DESKTOP\REFERRAL_SYSTEM\TEMP\DEBUG\MOC_LOGINSTATE.OBJ
C:\USERS\DYN\DESKTOP\REFERRAL_SYSTEM\TEMP\DEBUG\MOC_LIFESTYLEDIALOG.OBJ
C:\USERS\DYN\DESKTOP\REFERRAL_SYSTEM\TEMP\DEBUG\MOC_HEALTHDATADIALOG.OBJ
^C:\USERS\DYN\DESKTOP\REFERRAL_SYSTEM\SRC\REFERRALMANAGER.CPP
C:\USERS\DYN\DESKTOP\REFERRAL_SYSTEM\TEMP\DEBUG\VC120.PDB
^C:\USERS\DYN\DESKTOP\REFERRAL_SYSTEM\GENERATEDFILES\DEBUG\MOC_LOGINSTATE.CPP|C:\USERS\DYN\DESKTOP\REFERRAL_SYSTEM\GENERATEDFILES\DEBUG\MOC_MAINSCREENSTATE.CPP|C:\USERS\DYN\DESKTOP\REFERRAL_SYSTEM\GENERATEDFILES\DEBUG\MOC_REFERRALSTATE.CPP|C:\USERS\DYN\DESKTOP\REFERRAL_SYSTEM\GENERATEDFILES\DEBUG\MOC_VIEWREFERRALSSTATE.CPP|C:\USERS\DYN\DESKTOP\REFERRAL_SYSTEM\SRC\LOGINSTATE.CPP|C:\USERS\DYN\DESKTOP\REFERRAL_SYSTEM\SRC\MAIN.CPP|C:\USERS\DYN\DESKTOP\REFERRAL_SYSTEM\SRC\MAINSCREENSTATE.CPP|C:\USERS\DYN\DESKTOP\REFERRAL_SYSTEM\SRC\REFERRALSTATE.CPP|C:\USERS\DYN\DESKTOP\REFERRAL_SYSTEM\SRC\VIEWREFERRALSSTATE.CPP
C:\USERS\DYN\DESKTOP\REFERRAL_SYSTEM\TEMP\DEBUG\VC120.PDB
C:\USERS\DYN\DESKTOP\REFERRAL_SYSTEM\TEMP\DEBUG\MAIN.OBJ
C:\USERS\DYN\DESKTOP\REFERRAL_SYSTEM\TEMP\DEBUG\VIEWREFERRALSSTATE.OBJ
C:\USERS\DYN\DESKTOP\REFERRAL_SYSTEM\TEMP\DEBUG\REFERRALSTATE.OBJ
C:\USERS\DYN\DESKTOP\REFERRAL_SYSTEM\TEMP\DEBUG\MAINSCREENSTATE.OBJ
C:\USERS\DYN\DESKTOP\REFERRAL_SYSTEM\TEMP\DEBUG\LOGINSTATE.OBJ
C:\USERS\DYN\DESKTOP\REFERRAL_SYSTEM\TEMP\DEBUG\MOC_VIEWREFERRALSSTATE.OBJ
C:\USERS\DYN\DESKTOP\REFERRAL_SYSTEM\TEMP\DEBUG\MOC_REFERRALSTATE.OBJ
C:\USERS\DYN\DESKTOP\REFERRAL_SYSTEM\TEMP\DEBUG\MOC_MAINSCREENSTATE.OBJ
C:\USERS\DYN\DESKTOP\REFERRAL_SYSTEM\TEMP\DEBUG\MOC_LOGINSTATE.OBJ
^C:\USERS\DYN\DESKTOP\REFERRAL_SYSTEM\GENERATEDFILES\DEBUG\MOC_FACILITYDIALOG.CPP|C:\USERS\DYN\DESKTOP\REFERRAL_SYSTEM\GENERATEDFILES\DEBUG\MOC_HEALTHDATADIALOG.CPP|C:\USERS\DYN\DESKTOP\REFERRAL_SYSTEM\GENERATEDFILES\DEBUG\MOC_LIFESTYLEDIALOG.CPP|C:\USERS\DYN\DESKTOP\REFERRAL_SYSTEM\GENERATEDFILES\DEBUG\MOC_LOGINSTATE.CPP|C:\USERS\DYN\DESKTOP\REFERRAL_SYSTEM\GENERATEDFILES\DEBUG\MOC_MAINSCREENSTATE.CPP|C:\USERS\DYN\DESKTOP\REFERRAL_SYSTEM\GENERATEDFILES\DEBUG\MOC_REFERRALSTATE.CPP|C:\USERS\DYN\DESKTOP\REFERRAL_SYSTEM\GENERATEDFILES\DEBUG\MOC_SYMPTOMDIALOG.CPP|C:\USERS\DYN\DESKTOP\REFERRAL_SYSTEM\GENERATEDFILES\DEBUG\MOC_VIEWREFERRALSSTATE.CPP|C:\USERS\DYN\DESKTOP\REFERRAL_SYSTEM\GENERATEDFILES\DEBUG\MOC_VIEWSPECIALISTSDIALOG.CPP|C:\USERS\DYN\DESKTOP\REFERRAL_SYSTEM\SRC\FACILITYDIALOG.CPP|C:\USERS\DYN\DESKTOP\REFERRAL_SYSTEM\SRC\HEALTHDATADIALOG.CPP|C:\USERS\DYN\DESKTOP\REFERRAL_SYSTEM\SRC\LIFESTYLEDIALOG.CPP|C:\USERS\DYN\DESKTOP\REFERRAL_SYSTEM\SRC\LOGINSTATE.CPP|C:\USERS\DYN\DESKTOP\REFERRAL_SYSTEM\SRC\MAIN.CPP|C:\USERS\DYN\DESKTOP\REFERRAL_SYSTEM\SRC\MAINSCREENSTATE.CPP|C:\USERS\DYN\DESKTOP\REFERRAL_SYSTEM\SRC\REFERRALSTATE.CPP|C:\USERS\DYN\DESKTOP\REFERRAL_SYSTEM\SRC\STATEMANAGER.CPP|C:\USERS\DYN\DESKTOP\REFERRAL_SYSTEM\SRC\SYMPTOMDIALOG.CPP|C:\USERS\DYN\DESKTOP\REFERRAL_SYSTEM\SRC\VIEWREFERRALSSTATE.CPP|C:\USERS\DYN\DESKTOP\REFERRAL_SYSTEM\SRC\VIEWSPECIALISTDIALOG.CPP
C:\USERS\DYN\DESKTOP\REFERRAL_SYSTEM\TEMP\DEBUG\VC120.PDB
C:\USERS\DYN\DESKTOP\REFERRAL_SYSTEM\TEMP\DEBUG\MAIN.OBJ
C:\USERS\DYN\DESKTOP\REFERRAL_SYSTEM\TEMP\DEBUG\VIEWSPECIALISTDIALOG.OBJ
C:\USERS\DYN\DESKTOP\REFERRAL_SYSTEM\TEMP\DEBUG\VIEWREFERRALSSTATE.OBJ
C:\USERS\DYN\DESKTOP\REFERRAL_SYSTEM\TEMP\DEBUG\SYMPTOMDIALOG.OBJ
C:\USERS\DYN\DESKTOP\REFERRAL_SYSTEM\TEMP\DEBUG\STATEMANAGER.OBJ
C:\USERS\DYN\DESKTOP\REFERRAL_SYSTEM\TEMP\DEBUG\REFERRALSTATE.OBJ
C:\USERS\DYN\DESKTOP\REFERRAL_SYSTEM\TEMP\DEBUG\MAINSCREENSTATE.OBJ
C:\USERS\DYN\DESKTOP\REFERRAL_SYSTEM\TEMP\DEBUG\LOGINSTATE.OBJ
C:\USERS\DYN\DESKTOP\REFERRAL_SYSTEM\TEMP\DEBUG\LIFESTYLEDIALOG.OBJ
C:\USERS\DYN\DESKTOP\REFERRAL_SYSTEM\TEMP\DEBUG\HEALTHDATADIALOG.OBJ
C:\USERS\DYN\DESKTOP\REFERRAL_SYSTEM\TEMP\DEBUG\FACILITYDIALOG.OBJ
C:\USERS\DYN\DESKTOP\REFERRAL_SYSTEM\TEMP\DEBUG\MOC_VIEWSPECIALISTSDIALOG.OBJ
C:\USERS\DYN\DESKTOP\REFERRAL_SYSTEM\TEMP\DEBUG\MOC_VIEWREFERRALSSTATE.OBJ
C:\USERS\DYN\DESKTOP\REFERRAL_SYSTEM\TEMP\DEBUG\MOC_SYMPTOMDIALOG.OBJ
C:\USERS\DYN\DESKTOP\REFERRAL_SYSTEM\TEMP\DEBUG\MOC_REFERRALSTATE.OBJ
C:\USERS\DYN\DESKTOP\REFERRAL_SYSTEM\TEMP\DEBUG\MOC_MAINSCREENSTATE.OBJ
C:\USERS\DYN\DESKTOP\REFERRAL_SYSTEM\TEMP\DEBUG\MOC_LOGINSTATE.OBJ
C:\USERS\DYN\DESKTOP\REFERRAL_SYSTEM\TEMP\DEBUG\MOC_LIFESTYLEDIALOG.OBJ
C:\USERS\DYN\DESKTOP\REFERRAL_SYSTEM\TEMP\DEBUG\MOC_HEALTHDATADIALOG.OBJ
C:\USERS\DYN\DESKTOP\REFERRAL_SYSTEM\TEMP\DEBUG\MOC_FACILITYDIALOG.OBJ
^C:\USERS\DYN\DESKTOP\REFERRAL_SYSTEM\GENERATEDFILES\DEBUG\MOC_FACILITYDIALOG.CPP
C:\USERS\DYN\DESKTOP\REFERRAL_SYSTEM\TEMP\DEBUG\VC120.PDB
^C:\USERS\DYN\DESKTOP\REFERRAL_SYSTEM\SRC\FACILITYDIALOG.CPP
C:\USERS\DYN\DESKTOP\REFERRAL_SYSTEM\TEMP\DEBUG\VC120.PDB
^C:\USERS\DYN\DESKTOP\REFERRAL_SYSTEM\GENERATEDFILES\QRC_REFERRAL_SYSTEM.CPP
C:\USERS\DYN\DESKTOP\REFERRAL_SYSTEM\TEMP\DEBUG\VC120.PDB
C:\USERS\DYN\DESKTOP\REFERRAL_SYSTEM\TEMP\DEBUG\QRC_REFERRAL_SYSTEM.OBJ
^C:\USERS\DYN\DESKTOP\REFERRAL_SYSTEM\GENERATEDFILES\DEBUG\MOC_LOGINSTATE.CPP|C:\USERS\DYN\DESKTOP\REFERRAL_SYSTEM\GENERATEDFILES\DEBUG\MOC_MAINSCREENSTATE.CPP|C:\USERS\DYN\DESKTOP\REFERRAL_SYSTEM\GENERATEDFILES\DEBUG\MOC_REFERRALSTATE.CPP|C:\USERS\DYN\DESKTOP\REFERRAL_SYSTEM\GENERATEDFILES\DEBUG\MOC_VIEWREFERRALSSTATE.CPP|C:\USERS\DYN\DESKTOP\REFERRAL_SYSTEM\GENERATEDFILES\DEBUG\MOC_VIEWSPECIALISTSDIALOG.CPP|C:\USERS\DYN\DESKTOP\REFERRAL_SYSTEM\SRC\LOGINSTATE.CPP|C:\USERS\DYN\DESKTOP\REFERRAL_SYSTEM\SRC\MAIN.CPP|C:\USERS\DYN\DESKTOP\REFERRAL_SYSTEM\SRC\MAINSCREENSTATE.CPP|C:\USERS\DYN\DESKTOP\REFERRAL_SYSTEM\SRC\REFERRALSTATE.CPP|C:\USERS\DYN\DESKTOP\REFERRAL_SYSTEM\SRC\VIEWREFERRALSSTATE.CPP|C:\USERS\DYN\DESKTOP\REFERRAL_SYSTEM\SRC\VIEWSPECIALISTDIALOG.CPP
C:\USERS\DYN\DESKTOP\REFERRAL_SYSTEM\TEMP\DEBUG\VC120.PDB
C:\USERS\DYN\DESKTOP\REFERRAL_SYSTEM\TEMP\DEBUG\MAIN.OBJ
C:\USERS\DYN\DESKTOP\REFERRAL_SYSTEM\TEMP\DEBUG\VIEWSPECIALISTDIALOG.OBJ
C:\USERS\DYN\DESKTOP\REFERRAL_SYSTEM\TEMP\DEBUG\VIEWREFERRALSSTATE.OBJ
C:\USERS\DYN\DESKTOP\REFERRAL_SYSTEM\TEMP\DEBUG\REFERRALSTATE.OBJ
C:\USERS\DYN\DESKTOP\REFERRAL_SYSTEM\TEMP\DEBUG\MAINSCREENSTATE.OBJ
C:\USERS\DYN\DESKTOP\REFERRAL_SYSTEM\TEMP\DEBUG\LOGINSTATE.OBJ
C:\USERS\DYN\DESKTOP\REFERRAL_SYSTEM\TEMP\DEBUG\MOC_VIEWSPECIALISTSDIALOG.OBJ
C:\USERS\DYN\DESKTOP\REFERRAL_SYSTEM\TEMP\DEBUG\MOC_VIEWREFERRALSSTATE.OBJ
C:\USERS\DYN\DESKTOP\REFERRAL_SYSTEM\TEMP\DEBUG\MOC_REFERRALSTATE.OBJ
C:\USERS\DYN\DESKTOP\REFERRAL_SYSTEM\TEMP\DEBUG\MOC_MAINSCREENSTATE.OBJ
C:\USERS\DYN\DESKTOP\REFERRAL_SYSTEM\TEMP\DEBUG\MOC_LOGINSTATE.OBJ
^C:\USERS\DYN\DESKTOP\REFERRAL_SYSTEM\GENERATEDFILES\DEBUG\MOC_HEALTHDATADIALOG.CPP|C:\USERS\DYN\DESKTOP\REFERRAL_SYSTEM\GENERATEDFILES\DEBUG\MOC_LIFESTYLEDIALOG.CPP|C:\USERS\DYN\DESKTOP\REFERRAL_SYSTEM\GENERATEDFILES\DEBUG\MOC_LOGINSTATE.CPP|C:\USERS\DYN\DESKTOP\REFERRAL_SYSTEM\GENERATEDFILES\DEBUG\MOC_MAINSCREENSTATE.CPP|C:\USERS\DYN\DESKTOP\REFERRAL_SYSTEM\GENERATEDFILES\DEBUG\MOC_REFERRALSTATE.CPP|C:\USERS\DYN\DESKTOP\REFERRAL_SYSTEM\GENERATEDFILES\DEBUG\MOC_SYMPTOMDIALOG.CPP|C:\USERS\DYN\DESKTOP\REFERRAL_SYSTEM\GENERATEDFILES\DEBUG\MOC_VIEWREFERRALSSTATE.CPP|C:\USERS\DYN\DESKTOP\REFERRAL_SYSTEM\GENERATEDFILES\DEBUG\MOC_VIEWSPECIALISTSDIALOG.CPP|C:\USERS\DYN\DESKTOP\REFERRAL_SYSTEM\SRC\HEALTHDATADIALOG.CPP|C:\USERS\DYN\DESKTOP\REFERRAL_SYSTEM\SRC\LIFESTYLEDIALOG.CPP|C:\USERS\DYN\DESKTOP\REFERRAL_SYSTEM\SRC\LOGINSTATE.CPP|C:\USERS\DYN\DESKTOP\REFERRAL_SYSTEM\SRC\MAIN.CPP|C:\USERS\DYN\DESKTOP\REFERRAL_SYSTEM\SRC\MAINSCREENSTATE.CPP|C:\USERS\DYN\DESKTOP\REFERRAL_SYSTEM\SRC\REFERRALSTATE.CPP|C:\USERS\DYN\DESKTOP\REFERRAL_SYSTEM\SRC\STATEMANAGER.CPP|C:\USERS\DYN\DESKTOP\REFERRAL_SYSTEM\SRC\SYMPTOMDIALOG.CPP|C:\USERS\DYN\DESKTOP\REFERRAL_SYSTEM\SRC\VIEWREFERRALSSTATE.CPP|C:\USERS\DYN\DESKTOP\REFERRAL_SYSTEM\SRC\VIEWSPECIALISTDIALOG.CPP
C:\USERS\DYN\DESKTOP\REFERRAL_SYSTEM\TEMP\DEBUG\VC120.PDB
C:\USERS\DYN\DESKTOP\REFERRAL_SYSTEM\TEMP\DEBUG\MAIN.OBJ
C:\USERS\DYN\DESKTOP\REFERRAL_SYSTEM\TEMP\DEBUG\VIEWSPECIALISTDIALOG.OBJ
C:\USERS\DYN\DESKTOP\REFERRAL_SYSTEM\TEMP\DEBUG\VIEWREFERRALSSTATE.OBJ
C:\USERS\DYN\DESKTOP\REFERRAL_SYSTEM\TEMP\DEBUG\SYMPTOMDIALOG.OBJ
C:\USERS\DYN\DESKTOP\REFERRAL_SYSTEM\TEMP\DEBUG\STATEMANAGER.OBJ
C:\USERS\DYN\DESKTOP\REFERRAL_SYSTEM\TEMP\DEBUG\REFERRALSTATE.OBJ
C:\USERS\DYN\DESKTOP\REFERRAL_SYSTEM\TEMP\DEBUG\MAINSCREENSTATE.OBJ
C:\USERS\DYN\DESKTOP\REFERRAL_SYSTEM\TEMP\DEBUG\LOGINSTATE.OBJ
C:\USERS\DYN\DESKTOP\REFERRAL_SYSTEM\TEMP\DEBUG\LIFESTYLEDIALOG.OBJ
C:\USERS\DYN\DESKTOP\REFERRAL_SYSTEM\TEMP\DEBUG\HEALTHDATADIALOG.OBJ
C:\USERS\DYN\DESKTOP\REFERRAL_SYSTEM\TEMP\DEBUG\MOC_VIEWSPECIALISTSDIALOG.OBJ
C:\USERS\DYN\DESKTOP\REFERRAL_SYSTEM\TEMP\DEBUG\MOC_VIEWREFERRALSSTATE.OBJ
C:\USERS\DYN\DESKTOP\REFERRAL_SYSTEM\TEMP\DEBUG\MOC_SYMPTOMDIALOG.OBJ
C:\USERS\DYN\DESKTOP\REFERRAL_SYSTEM\TEMP\DEBUG\MOC_REFERRALSTATE.OBJ
C:\USERS\DYN\DESKTOP\REFERRAL_SYSTEM\TEMP\DEBUG\MOC_MAINSCREENSTATE.OBJ
C:\USERS\DYN\DESKTOP\REFERRAL_SYSTEM\TEMP\DEBUG\MOC_LOGINSTATE.OBJ
C:\USERS\DYN\DESKTOP\REFERRAL_SYSTEM\TEMP\DEBUG\MOC_LIFESTYLEDIALOG.OBJ
C:\USERS\DYN\DESKTOP\REFERRAL_SYSTEM\TEMP\DEBUG\MOC_HEALTHDATADIALOG.OBJ
^C:\USERS\DYN\DESKTOP\REFERRAL_SYSTEM\GENERATEDFILES\DEBUG\MOC_HEALTHDATADIALOG.CPP
C:\USERS\DYN\DESKTOP\REFERRAL_SYSTEM\TEMP\DEBUG\VC120.PDB
^C:\USERS\DYN\DESKTOP\REFERRAL_SYSTEM\GENERATEDFILES\DEBUG\MOC_LIFESTYLEDIALOG.CPP
C:\USERS\DYN\DESKTOP\REFERRAL_SYSTEM\TEMP\DEBUG\VC120.PDB
^C:\USERS\DYN\DESKTOP\REFERRAL_SYSTEM\GENERATEDFILES\DEBUG\MOC_LOGINSTATE.CPP
C:\USERS\DYN\DESKTOP\REFERRAL_SYSTEM\TEMP\DEBUG\VC120.PDB
^C:\USERS\DYN\DESKTOP\REFERRAL_SYSTEM\GENERATEDFILES\DEBUG\MOC_MAINSCREENSTATE.CPP
C:\USERS\DYN\DESKTOP\REFERRAL_SYSTEM\TEMP\DEBUG\VC120.PDB
^C:\USERS\DYN\DESKTOP\REFERRAL_SYSTEM\GENERATEDFILES\DEBUG\MOC_REFERRALSTATE.CPP
C:\USERS\DYN\DESKTOP\REFERRAL_SYSTEM\TEMP\DEBUG\VC120.PDB
^C:\USERS\DYN\DESKTOP\REFERRAL_SYSTEM\GENERATEDFILES\DEBUG\MOC_SYMPTOMDIALOG.CPP
C:\USERS\DYN\DESKTOP\REFERRAL_SYSTEM\TEMP\DEBUG\VC120.PDB
^C:\USERS\DYN\DESKTOP\REFERRAL_SYSTEM\GENERATEDFILES\DEBUG\MOC_VIEWREFERRALSSTATE.CPP
C:\USERS\DYN\DESKTOP\REFERRAL_SYSTEM\TEMP\DEBUG\VC120.PDB
^C:\USERS\DYN\DESKTOP\REFERRAL_SYSTEM\GENERATEDFILES\DEBUG\MOC_VIEWSPECIALISTSDIALOG.CPP
C:\USERS\DYN\DESKTOP\REFERRAL_SYSTEM\TEMP\DEBUG\VC120.PDB
^C:\USERS\DYN\DESKTOP\REFERRAL_SYSTEM\SRC\HEALTHDATADIALOG.CPP
C:\USERS\DYN\DESKTOP\REFERRAL_SYSTEM\TEMP\DEBUG\VC120.PDB
^C:\USERS\DYN\DESKTOP\REFERRAL_SYSTEM\SRC\LIFESTYLEDIALOG.CPP
C:\USERS\DYN\DESKTOP\REFERRAL_SYSTEM\TEMP\DEBUG\VC120.PDB
^C:\USERS\DYN\DESKTOP\REFERRAL_SYSTEM\SRC\LOGINSTATE.CPP
C:\USERS\DYN\DESKTOP\REFERRAL_SYSTEM\TEMP\DEBUG\VC120.PDB
^C:\USERS\DYN\DESKTOP\REFERRAL_SYSTEM\SRC\MAINSCREENSTATE.CPP
C:\USERS\DYN\DESKTOP\REFERRAL_SYSTEM\TEMP\DEBUG\VC120.PDB
^C:\USERS\DYN\DESKTOP\REFERRAL_SYSTEM\SRC\REFERRALSTATE.CPP
C:\USERS\DYN\DESKTOP\REFERRAL_SYSTEM\TEMP\DEBUG\VC120.PDB
^C:\USERS\DYN\DESKTOP\REFERRAL_SYSTEM\SRC\STATEMANAGER.CPP
C:\USERS\DYN\DESKTOP\REFERRAL_SYSTEM\TEMP\DEBUG\VC120.PDB
^C:\USERS\DYN\DESKTOP\REFERRAL_SYSTEM\SRC\SYMPTOMDIALOG.CPP
C:\USERS\DYN\DESKTOP\REFERRAL_SYSTEM\TEMP\DEBUG\VC120.PDB
^C:\USERS\DYN\DESKTOP\REFERRAL_SYSTEM\SRC\VIEWREFERRALSSTATE.CPP
C:\USERS\DYN\DESKTOP\REFERRAL_SYSTEM\TEMP\DEBUG\VC120.PDB
^C:\USERS\DYN\DESKTOP\REFERRAL_SYSTEM\SRC\VIEWSPECIALISTDIALOG.CPP
C:\USERS\DYN\DESKTOP\REFERRAL_SYSTEM\TEMP\DEBUG\VC120.PDB
^C:\USERS\DYN\DESKTOP\REFERRAL_SYSTEM\SRC\MAIN.CPP
C:\USERS\DYN\DESKTOP\REFERRAL_SYSTEM\TEMP\DEBUG\VC120.PDB
